C:\myt-2015-10-23\sm\sm-webapps\sm-back\src\main\java\mx\org\sm\util\AuthenticationFilter.java
C:\myt-2015-10-23\sm\sm-webapps\sm-back\src\main\java\mx\org\sm\res\GetLocationsRes.java
C:\myt-2015-10-23\sm\sm-webapps\sm-back\src\main\java\mx\org\sm\rs\LocalizacionResource.java
C:\myt-2015-10-23\sm\sm-webapps\sm-back\src\main\java\mx\org\sm\util\SpringApplicationContext.java
C:\myt-2015-10-23\sm\sm-webapps\sm-back\src\main\java\mx\org\sm\rs\LoginResource.java
C:\myt-2015-10-23\sm\sm-webapps\sm-back\src\main\java\mx\org\sm\res\AddLocationsRes.java
C:\myt-2015-10-23\sm\sm-webapps\sm-back\src\main\java\mx\org\sm\util\BasicRequest.java
C:\myt-2015-10-23\sm\sm-webapps\sm-back\src\main\java\mx\org\sm\util\HttpSessionController.java
C:\myt-2015-10-23\sm\sm-webapps\sm-back\src\main\java\mx\org\sm\util\GeneralResource.java
C:\myt-2015-10-23\sm\sm-webapps\sm-back\src\main\java\mx\org\sm\util\BasicResponse.java
C:\myt-2015-10-23\sm\sm-webapps\sm-back\src\main\java\mx\org\sm\util\CorsFilter.java
C:\myt-2015-10-23\sm\sm-webapps\sm-back\src\main\java\mx\org\sm\req\LoginReq.java
C:\myt-2015-10-23\sm\sm-webapps\sm-back\src\main\java\mx\org\sm\req\GetLocationsReq.java
C:\myt-2015-10-23\sm\sm-webapps\sm-back\src\main\java\mx\org\sm\req\AddLocationsReq.java
C:\myt-2015-10-23\sm\sm-webapps\sm-back\src\main\java\mx\org\sm\res\LoginRes.java
