C:\myt-2015-10-23\sm\sm-persistencia\src\main\java\mx\org\sm\dao\AdminDAO.java
C:\myt-2015-10-23\sm\sm-persistencia\src\main\java\mx\org\sm\dao\LocalizacionDAO.java
C:\myt-2015-10-23\sm\sm-persistencia\src\main\java\mx\org\sm\dao\util\PersistenceDAO.java
C:\myt-2015-10-23\sm\sm-persistencia\src\main\java\mx\org\sm\dao\impl\AdminDAOImpl.java
C:\myt-2015-10-23\sm\sm-persistencia\src\main\java\mx\org\sm\dao\map\AdminRow.java
C:\myt-2015-10-23\sm\sm-persistencia\src\main\java\mx\org\sm\dao\model\Usuario.java
C:\myt-2015-10-23\sm\sm-persistencia\src\main\java\mx\org\sm\dao\map\LocalizacionRow.java
C:\myt-2015-10-23\sm\sm-persistencia\src\main\java\mx\org\sm\dao\util\QueryParameters.java
C:\myt-2015-10-23\sm\sm-persistencia\src\main\java\mx\org\sm\dao\impl\LocalizacionDAOImpl.java
C:\myt-2015-10-23\sm\sm-persistencia\src\main\java\mx\org\sm\dao\model\Localizacion.java
