<?xml version="1.0" encoding="utf-8"?>
<!-- Generator: Adobe Illustrator 16.0.0, SVG Export Plug-In . SVG Version: 6.00 Build 0)  -->
<!DOCTYPE svg PUBLIC "-//W3C//DTD SVG 1.1//EN" "http://www.w3.org/Graphics/SVG/1.1/DTD/svg11.dtd">
<svg version="1.1" id="Layer_1" xmlns="http://www.w3.org/2000/svg" xmlns:xlink="http://www.w3.org/1999/xlink" x="0px" y="0px"
	 width="17px" height="16.83px" viewBox="0 0 17 16.83" enable-background="new 0 0 17 16.83" xml:space="preserve">
<g>
	<g>
		<path fill="#125135" d="M9.527,0v7.617H17C16.697,3.595,13.529,0.373,9.527,0L9.527,0z M8.126,0.277C3.622,0.366,0,4.031,0,8.548
			c0,4.574,3.704,8.282,8.278,8.282c4.472,0,8.102-3.539,8.267-7.971H8.126V0.277z"/>
	</g>
</g>
</svg>
