<?xml version="1.0" encoding="utf-8"?>
<!-- Generator: Adobe Illustrator 16.0.0, SVG Export Plug-In . SVG Version: 6.00 Build 0)  -->
<!DOCTYPE svg PUBLIC "-//W3C//DTD SVG 1.1//EN" "http://www.w3.org/Graphics/SVG/1.1/DTD/svg11.dtd">
<svg version="1.1" id="Capa_1" xmlns="http://www.w3.org/2000/svg" xmlns:xlink="http://www.w3.org/1999/xlink" x="0px" y="0px"
	 width="151.324px" height="44px" viewBox="0 0 151.324 44" enable-background="new 0 0 151.324 44" xml:space="preserve">
<g>
	<g>
		<path fill="#ABA493" d="M0.013,41.302c0.36,3.329,3.705,3.258,4.721,1.516c0.284-0.697,0.633-1.905,1.018-3.427
			c1.311-5.196,1.694-15.465,3.471-16.841c1.382-0.964,3.926,2.846,4.739,3.682c0.731,0.749,2.602,4.129,5.267,3.566
			c0.599-0.134,1.853-1.196,3.003-2.637c1.266-1.568,3.878-4.68,5.291-5.249c1.144-0.455,2.84-0.936,5.023,1.053
			c0.848,0.759,3.478,2.432,3.53,6.583c0.054,4.129-0.835,7.579,0.374,11.558c0.625,2.074,2.624,2.706,3.936,1.173
			c0.954-1.737,0.773-4.003,0.976-6.656c0.209-2.794,0.86-6.307,2.179-8.693c1.081-1.962,4.279-4.409,5.377-5.25
			c1.086-0.827,3.653-1.33,5.087-1.267c2.097,0.093,4.349-0.017,4.71,2.288c0.436,2.783-0.134,6.203-0.221,9.049
			c-0.063,2.311-0.232,5.382-0.336,7.694c-0.082,1.824,1.092,4.402,3.496,2.909c1.358-0.842,1.521-6.429,1.58-7.852
			c0.127-3.153,0.465-6.51,0.615-9.652c0.047-1.057-0.145-3.635,0.65-4.547c1.08-1.232,5.146-0.663,6.458-0.43
			c5.912,1.033,4.274-5.162-1.689-5.552c-4.912-0.318-9.994-0.54-14.918-0.105c-1.935,0.168-5.355,0.755-8.584,3.496
			c-2.241,1.9-3.892,5.726-7.085,4.791c-0.976-0.284-1.069-0.581-1.731-1.219c-0.511-0.5-2.45-3.257-3.903-4.193
			c-1.283-0.83-1.961-1.132-3.541-1.051c-1.737,0.087-4.205,2.142-5.54,3.206c-0.954,0.75-3.579,3.369-5.355,3.468
			c-1.905,0.098-3.276-1.708-3.711-2.166c-0.923-0.957-3.571-4.327-4.669-4.914c-2.305-1.224-4.361-0.063-5.088,1.679
			C1.5,25.993-0.167,39.624,0.013,41.302"/>
		<path fill="#8A741F" d="M67.042,2.531c0.476,0.866,0.517,2.114,0.215,3.054c-0.472,1.476-2.48,3.34-4.675,3.12
			c-0.819-0.082-2.613-0.331-3.746-2.051c-0.244-0.372-0.61-1.562-0.61-2.153c0-1.291,0.591-2.16,1.358-3.108
			c0.714-0.877,1.633-1.318,2.887-1.388c0.54-0.029,1.329,0.064,1.789,0.232C64.753,0.418,66.356,1.294,67.042,2.531"/>
		<path fill="#B36B18" d="M36.651,12.219c-0.609-0.784-0.843-2.027-0.691-3.032c0.238-1.562,2.01-3.948,4.216-4.147
			c0.819-0.068,2.695,0.123,4.018,1.262c0.338,0.284,0.871,1.132,0.999,1.55c0.389,1.237-0.133,2.874-0.743,3.966
			c-0.57,1.016-1.661,1.754-2.892,2.062c-0.523,0.133-1.319,0.186-1.801,0.104C39.242,13.897,37.523,13.327,36.651,12.219"/>
		<path fill="#D3A53A" d="M13.444,3.182c0.616,0.819,0.837,2.121,0.67,3.177c-0.269,1.637-2.15,4.146-4.443,4.356
			c-0.854,0.069-2.804-0.123-4.152-1.319C5.182,9.1,4.636,8.211,4.508,7.776c-0.383-1.3,0.186-3.02,0.836-4.165
			c0.603-1.062,1.747-1.84,3.031-2.171c0.545-0.134,1.371-0.191,1.871-0.105C10.779,1.422,12.558,2.021,13.444,3.182"/>
		<path fill="#B36B18" d="M90.486,22.498l-0.511-3.618l-0.181-1.575c-0.046,0.198-0.099,0.378-0.151,0.553
			c-0.046,0.168-0.115,0.383-0.198,0.621l-1.359,4.019h-1.208l-1.254-3.741c-0.081-0.238-0.162-0.487-0.244-0.749
			c-0.07-0.26-0.127-0.493-0.175-0.708c-0.006,0.232-0.029,0.493-0.069,0.778c-0.035,0.291-0.069,0.574-0.098,0.854l-0.464,3.566
			h-1.139l0.982-6.516h1.416l1.335,3.949c0.088,0.25,0.164,0.47,0.222,0.661c0.058,0.192,0.104,0.384,0.133,0.577
			c0.064-0.251,0.105-0.431,0.133-0.548c0.042-0.116,0.105-0.331,0.214-0.65l1.383-3.989h1.481l0.952,6.516H90.486z"/>
		<path fill="#B36B18" d="M96.368,22.596c-0.893,0-1.573-0.203-2.044-0.616c-0.464-0.406-0.697-0.988-0.697-1.743v-4.256h1.15v4.059
			c0,0.551,0.145,0.958,0.43,1.225c0.291,0.256,0.709,0.389,1.254,0.389c0.582,0,1.005-0.145,1.273-0.447
			c0.26-0.301,0.395-0.726,0.395-1.277v-3.949h1.132v4.029c0,0.756-0.243,1.372-0.72,1.859
			C98.064,22.352,97.343,22.596,96.368,22.596"/>
		<path fill="#B36B18" d="M102.507,22.608c-0.204,0-0.447-0.019-0.715-0.052c-0.273-0.031-0.5-0.069-0.686-0.111l0.051-1.061
			c0.391,0.173,0.89,0.266,1.487,0.266c0.384,0,0.716-0.088,0.978-0.263c0.271-0.167,0.4-0.429,0.4-0.783
			c0-0.36-0.513-0.714-1.533-1.075c-1.023-0.354-1.533-0.917-1.533-1.672c0-0.604,0.231-1.08,0.69-1.435
			c0.46-0.354,1.098-0.534,1.911-0.534c0.226,0,0.447,0.011,0.661,0.029c0.22,0.016,0.425,0.046,0.617,0.085l-0.048,0.989
			c-0.174-0.059-0.383-0.105-0.615-0.14c-0.232-0.035-0.453-0.046-0.674-0.046c-0.453,0-0.789,0.081-1.01,0.244
			c-0.221,0.163-0.326,0.389-0.326,0.678c0,0.349,0.506,0.709,1.533,1.075c1.027,0.372,1.539,0.93,1.539,1.678
			c0,0.645-0.255,1.156-0.767,1.545C103.953,22.416,103.302,22.608,102.507,22.608"/>
		<polygon fill="#B36B18" points="107.007,22.498 107.007,15.982 110.689,15.982 110.689,16.863 108.163,16.863 108.163,18.716 
			110.567,18.716 110.567,19.583 108.163,19.583 108.163,21.58 110.689,21.58 110.689,22.498 		"/>
		<path fill="#B36B18" d="M115.197,16.864c-0.57,0-1.046,0.208-1.43,0.615c-0.384,0.407-0.575,0.975-0.575,1.719
			c0,0.721,0.157,1.308,0.471,1.743s0.812,0.65,1.499,0.65c0.591,0,1.078-0.191,1.463-0.586c0.383-0.401,0.569-0.976,0.569-1.731
			c0-0.771-0.175-1.37-0.529-1.783C116.31,17.073,115.822,16.864,115.197,16.864 M115.08,22.596c-1.021,0-1.801-0.295-2.317-0.889
			c-0.522-0.593-0.784-1.395-0.784-2.404c0-1.04,0.314-1.871,0.952-2.485c0.628-0.621,1.417-0.93,2.347-0.93
			c0.976,0,1.748,0.284,2.305,0.854c0.564,0.569,0.844,1.376,0.844,2.439c0,1.057-0.32,1.894-0.953,2.499
			C116.839,22.293,116.044,22.596,115.08,22.596"/>
		<path fill="#ABA493" d="M90.486,32.003l-0.511-3.618l-0.181-1.58c-0.046,0.197-0.099,0.383-0.151,0.551
			c-0.046,0.177-0.115,0.383-0.198,0.628l-1.359,4.018l-1.208-0.005l-1.254-3.735c-0.081-0.237-0.162-0.493-0.244-0.748
			c-0.07-0.254-0.127-0.494-0.175-0.709c-0.006,0.232-0.029,0.493-0.069,0.778c-0.035,0.291-0.069,0.57-0.098,0.849l-0.464,3.565
			l-1.139,0.005l0.982-6.515h1.416l1.335,3.948c0.088,0.25,0.164,0.47,0.222,0.662c0.058,0.193,0.104,0.383,0.133,0.576
			c0.064-0.251,0.105-0.431,0.133-0.553c0.042-0.117,0.105-0.331,0.214-0.645l1.383-3.988h1.481l0.952,6.515H90.486z"/>
		<polygon fill="#ABA493" points="93.662,32.003 93.662,25.489 97.343,25.489 97.343,26.372 94.817,26.372 94.817,28.223 
			97.216,28.223 97.216,29.089 94.817,29.089 94.817,31.086 97.343,31.086 97.343,32.003 		"/>
		<path fill="#ABA493" d="M106.027,32.003l-0.518-3.618l-0.181-1.58c-0.052,0.197-0.098,0.383-0.15,0.551
			c-0.052,0.177-0.11,0.383-0.197,0.628l-1.358,4.018l-1.209-0.005l-1.256-3.735c-0.079-0.237-0.161-0.493-0.236-0.748
			c-0.076-0.254-0.134-0.494-0.175-0.709c-0.011,0.232-0.034,0.493-0.069,0.778c-0.035,0.291-0.069,0.57-0.104,0.849l-0.464,3.565
			l-1.139,0.005l0.986-6.515h1.418l1.336,3.948c0.08,0.25,0.156,0.47,0.209,0.662c0.063,0.193,0.109,0.383,0.139,0.576
			c0.064-0.251,0.105-0.431,0.141-0.553c0.034-0.117,0.104-0.331,0.214-0.645l1.376-3.988h1.487l0.952,6.515H106.027z"/>
		<path fill="#ABA493" d="M111.792,26.372c-0.569,0-1.045,0.202-1.43,0.608c-0.383,0.413-0.573,0.981-0.573,1.726
			c0,0.725,0.155,1.299,0.47,1.734c0.312,0.442,0.812,0.657,1.492,0.657c0.604,0,1.092-0.197,1.47-0.592
			c0.384-0.394,0.569-0.97,0.569-1.725c0-0.772-0.176-1.364-0.529-1.782C112.908,26.579,112.419,26.372,111.792,26.372
			 M111.676,32.103c-1.022,0-1.8-0.296-2.323-0.895c-0.51-0.586-0.777-1.388-0.777-2.399c0-1.039,0.314-1.87,0.952-2.491
			c0.639-0.616,1.416-0.923,2.353-0.923c0.976,0,1.742,0.285,2.305,0.854c0.559,0.562,0.836,1.376,0.836,2.439
			c0,1.057-0.32,1.894-0.952,2.496C113.43,31.795,112.64,32.103,111.676,32.103"/>
		<path fill="#ABA493" d="M118.441,26.335c-0.236,0-0.459,0.012-0.645,0.037v2.025l0.686,0.023c0.396,0,0.709-0.098,0.94-0.296
			c0.233-0.197,0.349-0.471,0.349-0.807C119.771,26.661,119.33,26.335,118.441,26.335 M119.923,32.003l-2.079-2.805h-0.048v2.805
			h-1.148v-6.508c0.365,0,0.707,0,1.033-0.006c0.314-0.012,0.615-0.024,0.906-0.029c0.766,0,1.358,0.146,1.766,0.441
			c0.418,0.295,0.62,0.731,0.62,1.3c0,0.535-0.18,0.965-0.54,1.289c-0.359,0.327-0.83,0.512-1.41,0.569l0.568,0.698l1.76,2.236
			L119.923,32.003z"/>
		<rect x="122.896" y="25.489" fill="#ABA493" width="1.15" height="6.515"/>
		<path fill="#ABA493" d="M128.848,27.765l-0.354-1.093c-0.087,0.326-0.203,0.685-0.354,1.074l-0.807,2.051h2.299L128.848,27.765z
			 M130.446,31.998l-0.511-1.36h-2.893l-0.512,1.366h-1.155l2.527-6.515h1.306l2.496,6.515L130.446,31.998z"/>
		<path fill="#ABA493" d="M86.311,39.263v2.242h-1.149v-2.224l-2.267-4.292l1.26,0.006l1.058,2.048
			c0.191,0.362,0.371,0.751,0.54,1.174c0.191-0.413,0.401-0.831,0.627-1.266l1.041-1.969l1.189,0.006L86.311,39.263z"/>
		<polygon fill="#ABA493" points="94.453,35.935 94.453,41.505 93.302,41.505 93.302,35.935 91.42,35.935 91.42,34.988 
			96.345,34.988 96.345,35.935 		"/>
		<path fill="#ABA493" d="M100.236,35.877c-0.568,0-1.045,0.204-1.428,0.61c-0.385,0.408-0.582,0.981-0.582,1.724
			c0,0.727,0.164,1.303,0.477,1.737c0.314,0.441,0.808,0.657,1.492,0.657c0.6,0,1.086-0.197,1.47-0.593
			c0.378-0.395,0.569-0.97,0.569-1.724c0-0.778-0.174-1.371-0.534-1.789C101.351,36.086,100.863,35.877,100.236,35.877
			 M100.121,41.603c-1.029,0-1.801-0.292-2.322-0.881c-0.524-0.594-0.779-1.4-0.779-2.405c0-1.045,0.314-1.87,0.951-2.492
			c0.629-0.616,1.418-0.923,2.347-0.923c0.976,0,1.748,0.286,2.301,0.849c0.562,0.568,0.841,1.382,0.841,2.439
			c0,1.062-0.312,1.893-0.951,2.502C101.875,41.302,101.083,41.603,100.121,41.603"/>
		<polygon fill="#ABA493" points="105.083,41.505 105.083,34.988 106.24,34.988 106.24,40.529 108.552,40.529 108.552,41.505 		"/>
		<polygon fill="#ABA493" points="109.899,41.505 109.899,34.988 113.582,34.988 113.582,35.877 111.048,35.877 111.048,37.729 
			113.453,37.729 113.453,38.59 111.048,38.59 111.048,40.592 113.582,40.592 113.582,41.505 		"/>
		<path fill="#ABA493" d="M117.292,35.836c-0.239,0-0.453,0.013-0.645,0.042v2.026l0.685,0.029c0.395,0,0.709-0.104,0.94-0.302
			c0.234-0.197,0.349-0.47,0.349-0.813C118.622,36.167,118.181,35.836,117.292,35.836 M118.773,41.505l-2.079-2.799h-0.046v2.799
			h-1.151v-6.503c0.366,0,0.709-0.007,1.034-0.013c0.314-0.006,0.615-0.018,0.906-0.029c0.768,0,1.354,0.15,1.766,0.447
			s0.621,0.731,0.621,1.302c0,0.534-0.18,0.963-0.539,1.284c-0.359,0.324-0.825,0.517-1.416,0.574l0.566,0.697l1.766,2.242H118.773z
			"/>
		<path fill="#ABA493" d="M124.308,37.271l-0.355-1.093c-0.082,0.326-0.203,0.688-0.359,1.076l-0.801,2.05h2.294L124.308,37.271z
			 M125.905,41.505l-0.511-1.364h-2.887l-0.518,1.364h-1.148l2.52-6.517h1.301l2.502,6.517H125.905z"/>
		<path fill="#ABA493" d="M132.734,41.505l-2.451-3.817c-0.268-0.405-0.511-0.841-0.715-1.289v0.152
			c0,0.278,0.008,0.527,0.014,0.754c0.005,0.227,0.016,0.448,0.023,0.651v3.548h-1.1v-6.517l1.498,0.006l2.416,3.756
			c0.279,0.413,0.53,0.85,0.768,1.308c-0.029-0.43-0.041-1.126-0.041-2.097v-2.974h1.098v6.517H132.734z"/>
		<path fill="#ABA493" d="M139.099,41.591c-1.033,0-1.824-0.279-2.363-0.836c-0.541-0.558-0.813-1.347-0.813-2.37
			c0-0.993,0.29-1.823,0.871-2.485c0.575-0.656,1.439-0.986,2.583-0.986c0.512,0,1,0.058,1.453,0.186l-0.116,1.016
			c-0.517-0.157-1-0.238-1.452-0.238c-0.673,0-1.195,0.22-1.568,0.668c-0.371,0.448-0.557,1.028-0.557,1.73
			c0,0.749,0.191,1.325,0.568,1.726c0.377,0.396,0.928,0.592,1.632,0.592c0.245,0,0.494-0.029,0.761-0.088
			c0.257-0.057,0.494-0.133,0.691-0.226l0.099,0.998C140.341,41.494,139.744,41.591,139.099,41.591"/>
		<rect x="142.513" y="34.988" fill="#ABA493" width="1.15" height="6.516"/>
		<path fill="#ABA493" d="M148.466,37.271l-0.36-1.093c-0.081,0.326-0.203,0.688-0.354,1.076l-0.801,2.05h2.299L148.466,37.271z
			 M150.062,41.505l-0.51-1.364h-2.893l-0.511,1.364h-1.156l2.526-6.517h1.301l2.504,6.517H150.062z"/>
	</g>
</g>
</svg>
